{
    "page": 3,
    "total_results": 374872,
    "total_pages": 18744,
    "results": [
        {
            "vote_count": 6777,
            "id": 122917,
            "video": false,
            "vote_average": 7.2,
            "title": "The Hobbit: The Battle of the Five Armies",
            "popularity": 41.568,
            "poster_path": "/9zRzFJuaj0CHIOhAkcCcFTvyu2X.jpg",
            "original_language": "en",
            "original_title": "The Hobbit: The Battle of the Five Armies",
            "genre_ids": [
                28,
                12,
                14
            ],
            "backdrop_path": "/uA8Qe2d9bKEdCFakjjdldy3P2pU.jpg",
            "adult": false,
            "overview": "Immediately after the events of The Desolation of Smaug, Bilbo and the dwarves try to defend Erebor's mountain of treasure from others who claim it: the men of the ruined Laketown and the elves of Mirkwood. Meanwhile an army of Orcs led by Azog the Defiler is marching on Erebor, fueled by the rise of the dark lord Sauron. Dwarves, elves and men must unite, and the hope for Middle-Earth falls into Bilbo's hands.",
            "release_date": "2014-12-10"
        },
        {
            "vote_count": 9936,
            "id": 263115,
            "video": false,
            "vote_average": 7.7,
            "title": "Logan",
            "popularity": 41.446,
            "poster_path": "/gGBu0hKw9BGddG8RkRAMX7B6NDB.jpg",
            "original_language": "en",
            "original_title": "Logan",
            "genre_ids": [
                28,
                18,
                878
            ],
            "backdrop_path": "/5pAGnkFYSsFJ99ZxDIYnhQbQFXs.jpg",
            "adult": false,
            "overview": "In the near future, a weary Logan cares for an ailing Professor X in a hideout on the Mexican border. But Logan's attempts to hide from the world and his legacy are upended when a young mutant arrives, pursued by dark forces.",
            "release_date": "2017-02-28"
        },
        {
            "vote_count": 3797,
            "id": 954,
            "video": false,
            "vote_average": 6.8,
            "title": "Mission: Impossible",
            "popularity": 41.032,
            "poster_path": "/vmj2PzTLC6xJvshpq8SlaYE3gbd.jpg",
            "original_language": "en",
            "original_title": "Mission: Impossible",
            "genre_ids": [
                12,
                28,
                53
            ],
            "backdrop_path": "/tjQHn6xW5BiB1RJ3OZIPDzIOSkF.jpg",
            "adult": false,
            "overview": "When Ethan Hunt, the leader of a crack espionage team whose perilous operation has gone awry with no explanation, discovers that a mole has penetrated the CIA, he's surprised to learn that he's the No. 1 suspect. To clear his name, Hunt now must ferret out the real double agent and, in the process, even the score.",
            "release_date": "1996-05-22"
        },
        {
            "vote_count": 551,
            "id": 442249,
            "video": false,
            "vote_average": 6,
            "title": "The First Purge",
            "popularity": 39.388,
            "poster_path": "/2slvblTroiT1lY9bYLK7Amigo1k.jpg",
            "original_language": "en",
            "original_title": "The First Purge",
            "genre_ids": [
                28,
                27,
                878,
                53
            ],
            "backdrop_path": "/dnaitaoCh8MftfYEVnprcuYExZp.jpg",
            "adult": false,
            "overview": "To push the crime rate below one percent for the rest of the year, the New Founding Fathers of America test a sociological theory that vents aggression for one night in one isolated community. But when the violence of oppressors meets the rage of the others, the contagion will explode from the trial-city borders and spread across the nation.",
            "release_date": "2018-07-04"
        },
        {
            "vote_count": 12,
            "id": 399360,
            "video": false,
            "vote_average": 6.1,
            "title": "Alpha",
            "popularity": 39.367,
            "poster_path": "/pOTYsL5bGrNoUlStI9Q2AEuO27s.jpg",
            "original_language": "en",
            "original_title": "Alpha",
            "genre_ids": [
                53,
                12
            ],
            "backdrop_path": "/efh8czbTqrz9St2bnNL8lit2klF.jpg",
            "adult": false,
            "overview": "After a hunting expedition goes awry, a young caveman struggles against the elements to find his way home.",
            "release_date": "2018-08-17"
        },
        {
            "vote_count": 24,
            "id": 414919,
            "video": false,
            "vote_average": 6.7,
            "title": "Hart Beat",
            "popularity": 39.058,
            "poster_path": "/h1PBdhD1c6xnTV6c7B4d58OESYB.jpg",
            "original_language": "nl",
            "original_title": "Hart Beat",
            "genre_ids": [
                10751,
                35,
                18
            ],
            "backdrop_path": "/pJG7QnbqUeFNKre3BTVvrv96ZUX.jpg",
            "adult": false,
            "overview": "Making music means everything for the shy Zoë. But since her father left, she never played guitar again. When she is hit by the bus from Mik, superstar Bieber size, sparks fly allthough she is not a fan at first. Off course, people around the two love birds dont exactly cooperate to make things work...",
            "release_date": "2016-10-12"
        },
        {
            "vote_count": 2,
            "id": 122895,
            "video": false,
            "vote_average": 5,
            "title": "Purana Mandir",
            "popularity": 39.047,
            "poster_path": "/4Qt31RPxuTp9noBR3efSbemh65I.jpg",
            "original_language": "hi",
            "original_title": "पुराना मन्दिर",
            "genre_ids": [
                27
            ],
            "backdrop_path": "/hrHVhrtfhCVREMewEC4r58yB6jz.jpg",
            "adult": false,
            "overview": "Suman lives a wealthy lifestyle along with her widower dad, Thakur Ranvir Singh, and an unmarried aunt, Damyanti, in a palatial house in Bombay. They are direct descendants of Raja Hariman Singh of Bijapur. When Ranvir finds out that Suman is in love with a middle-classed male, Sanjay, he expresses displeasure and forbids her to ever see him again. When she persists, he tells her that there is a curse on the entire family - a curse that was inflicted 200 years ago by a blood-thirsty, flesh-eating demon named Samri.",
            "release_date": "1984-10-15"
        },
        {
            "vote_count": 15775,
            "id": 155,
            "video": false,
            "vote_average": 8.4,
            "title": "The Dark Knight",
            "popularity": 38.904,
            "poster_path": "/1hRoyzDtpgMU7Dz4JF22RANzQO7.jpg",
            "original_language": "en",
            "original_title": "The Dark Knight",
            "genre_ids": [
                18,
                28,
                80,
                53
            ],
            "backdrop_path": "/hqkIcbrOHL86UncnHIsHVcVmzue.jpg",
            "adult": false,
            "overview": "Batman raises the stakes in his war on crime. With the help of Lt. Jim Gordon and District Attorney Harvey Dent, Batman sets out to dismantle the remaining criminal organizations that plague the streets. The partnership proves to be effective, but they soon find themselves prey to a reign of chaos unleashed by a rising criminal mastermind known to the terrified citizens of Gotham as the Joker.",
            "release_date": "2008-07-16"
        },
        {
            "vote_count": 4608,
            "id": 87101,
            "video": false,
            "vote_average": 5.9,
            "title": "Terminator Genisys",
            "popularity": 38.251,
            "poster_path": "/5JU9ytZJyR3zmClGmVm9q4Geqbd.jpg",
            "original_language": "en",
            "original_title": "Terminator Genisys",
            "genre_ids": [
                878,
                28,
                53,
                12
            ],
            "backdrop_path": "/bIlYH4l2AyYvEysmS2AOfjO7Dn8.jpg",
            "adult": false,
            "overview": "The year is 2029. John Connor, leader of the resistance continues the war against the machines. At the Los Angeles offensive, John's fears of the unknown future begin to emerge when TECOM spies reveal a new plot by SkyNet that will attack him from both fronts; past and future, and will ultimately change warfare forever.",
            "release_date": "2015-06-23"
        },
        {
            "vote_count": 12315,
            "id": 1726,
            "video": false,
            "vote_average": 7.5,
            "title": "Iron Man",
            "popularity": 37.934,
            "poster_path": "/848chlIWVT41VtAAgyh9bWymAYb.jpg",
            "original_language": "en",
            "original_title": "Iron Man",
            "genre_ids": [
                28,
                878,
                12
            ],
            "backdrop_path": "/ZQixhAZx6fH1VNafFXsqa1B8QI.jpg",
            "adult": false,
            "overview": "After being held captive in an Afghan cave, billionaire engineer Tony Stark creates a unique weaponized suit of armor to fight evil.",
            "release_date": "2008-04-30"
        },
        {
            "vote_count": 11811,
            "id": 120,
            "video": false,
            "vote_average": 8.2,
            "title": "The Lord of the Rings: The Fellowship of the Ring",
            "popularity": 37.854,
            "poster_path": "/eDkDYEUIHEp5qavNa5k6XsMHgbf.jpg",
            "original_language": "en",
            "original_title": "The Lord of the Rings: The Fellowship of the Ring",
            "genre_ids": [
                12,
                14,
                28
            ],
            "backdrop_path": "/pIUvQ9Ed35wlWhY2oU6OmwEsmzG.jpg",
            "adult": false,
            "overview": "Young hobbit Frodo Baggins, after inheriting a mysterious ring from his uncle Bilbo, must leave his home in order to keep it from falling into the hands of its evil creator. Along the way, a fellowship is formed to protect the ringbearer and make sure that the ring arrives at its final destination: Mt. Doom, the only place where it can be destroyed.",
            "release_date": "2001-12-18"
        },
        {
            "vote_count": 8528,
            "id": 207703,
            "video": false,
            "vote_average": 7.6,
            "title": "Kingsman: The Secret Service",
            "popularity": 37.636,
            "poster_path": "/8x7ej0LnHdKUqilNNJXYOeyB6L9.jpg",
            "original_language": "en",
            "original_title": "Kingsman: The Secret Service",
            "genre_ids": [
                80,
                35,
                28,
                12
            ],
            "backdrop_path": "/7McaexSsSTLD8V17UgaZAfI0Cu9.jpg",
            "adult": false,
            "overview": "The story of a super-secret spy organization that recruits an unrefined but promising street kid into the agency's ultra-competitive training program just as a global threat emerges from a twisted tech genius.",
            "release_date": "2015-01-24"
        },
        {
            "vote_count": 7660,
            "id": 76338,
            "video": false,
            "vote_average": 6.7,
            "title": "Thor: The Dark World",
            "popularity": 37.359,
            "poster_path": "/bnX5PqAdQZRXSw3aX3DutDcdso5.jpg",
            "original_language": "en",
            "original_title": "Thor: The Dark World",
            "genre_ids": [
                28,
                12,
                14
            ],
            "backdrop_path": "/3FweBee0xZoY77uO1bhUOlQorNH.jpg",
            "adult": false,
            "overview": "Thor fights to restore order across the cosmos… but an ancient race led by the vengeful Malekith returns to plunge the universe back into darkness. Faced with an enemy that even Odin and Asgard cannot withstand, Thor must embark on his most perilous and personal journey yet, one that will reunite him with Jane Foster and force him to sacrifice everything to save us all.",
            "release_date": "2013-10-29"
        },
        {
            "vote_count": 10781,
            "id": 122,
            "video": false,
            "vote_average": 8.3,
            "title": "The Lord of the Rings: The Return of the King",
            "popularity": 37.1,
            "poster_path": "/rCzpDGLbOoPwLjy3OAm5NUPOTrC.jpg",
            "original_language": "en",
            "original_title": "The Lord of the Rings: The Return of the King",
            "genre_ids": [
                12,
                14,
                28
            ],
            "backdrop_path": "/8BPZO0Bf8TeAy8znF43z8soK3ys.jpg",
            "adult": false,
            "overview": "Aragorn is revealed as the heir to the ancient kings as he, Gandalf and the other members of the broken fellowship struggle to save Gondor from Sauron's forces. Meanwhile, Frodo and Sam bring the ring closer to the heart of Mordor, the dark lord's realm.",
            "release_date": "2003-12-01"
        },
        {
            "vote_count": 5360,
            "id": 141052,
            "video": false,
            "vote_average": 6.3,
            "title": "Justice League",
            "popularity": 37.034,
            "poster_path": "/eifGNCSDuxJeS1loAXil5bIGgvC.jpg",
            "original_language": "en",
            "original_title": "Justice League",
            "genre_ids": [
                28,
                12,
                14,
                878
            ],
            "backdrop_path": "/o5T8rZxoWSBMYwjsUFUqTt6uMQB.jpg",
            "adult": false,
            "overview": "Fuelled by his restored faith in humanity and inspired by Superman's selfless act, Bruce Wayne and Diana Prince assemble a team of metahumans consisting of Barry Allen, Arthur Curry and Victor Stone to face the catastrophic threat of Steppenwolf and the Parademons who are on the hunt for three Mother Boxes on Earth.",
            "release_date": "2017-11-15"
        },
        {
            "vote_count": 366,
            "id": 455656,
            "video": false,
            "vote_average": 6.4,
            "title": "#realityhigh",
            "popularity": 37.014,
            "poster_path": "/wUXT3KEh6vjDzwYKiYWwdJNfZOW.jpg",
            "original_language": "en",
            "original_title": "#realityhigh",
            "genre_ids": [
                35
            ],
            "backdrop_path": "/q32LUbGLIwws4fH5Kv5E6RFGbmg.jpg",
            "adult": false,
            "overview": "When nerdy high schooler Dani finally attracts the interest of her longtime crush, she lands in the cross hairs of his ex, a social media celebrity.",
            "release_date": "2017-07-17"
        },
        {
            "vote_count": 15047,
            "id": 157336,
            "video": false,
            "vote_average": 8.2,
            "title": "Interstellar",
            "popularity": 37,
            "poster_path": "/nBNZadXqJSdt05SHLqgT0HuC5Gm.jpg",
            "original_language": "en",
            "original_title": "Interstellar",
            "genre_ids": [
                12,
                18,
                878
            ],
            "backdrop_path": "/xu9zaAevzQ5nnrsXN6JcahLnG4i.jpg",
            "adult": false,
            "overview": "Interstellar chronicles the adventures of a group of explorers who make use of a newly discovered wormhole to surpass the limitations on human space travel and conquer the vast distances involved in an interstellar voyage.",
            "release_date": "2014-11-05"
        },
        {
            "vote_count": 9859,
            "id": 10195,
            "video": false,
            "vote_average": 6.7,
            "title": "Thor",
            "popularity": 36.856,
            "poster_path": "/bIuOWTtyFPjsFDevqvF3QrD1aun.jpg",
            "original_language": "en",
            "original_title": "Thor",
            "genre_ids": [
                12,
                14,
                28
            ],
            "backdrop_path": "/LvmmDZxkTDqp0DX7mUo621ahdX.jpg",
            "adult": false,
            "overview": "Against his father Odin's will, The Mighty Thor - a powerful but arrogant warrior god - recklessly reignites an ancient war. Thor is cast down to Earth and forced to live among humans as punishment. Once here, Thor learns what it takes to be a true hero when the most dangerous villain of his world sends the darkest forces of Asgard to invade Earth.",
            "release_date": "2011-04-21"
        },
        {
            "vote_count": 9413,
            "id": 284052,
            "video": false,
            "vote_average": 7.3,
            "title": "Doctor Strange",
            "popularity": 36.647,
            "poster_path": "/4PiiNGXj1KENTmCBHeN6Mskj2Fq.jpg",
            "original_language": "en",
            "original_title": "Doctor Strange",
            "genre_ids": [
                28,
                12,
                14,
                878
            ],
            "backdrop_path": "/tFI8VLMgSTTU38i8TIsklfqS9Nl.jpg",
            "adult": false,
            "overview": "After his career is destroyed, a brilliant but arrogant surgeon gets a new lease on life when a sorcerer takes him under her wing and trains him to defend the world against evil.",
            "release_date": "2016-10-25"
        },
        {
            "vote_count": 9984,
            "id": 22,
            "video": false,
            "vote_average": 7.6,
            "title": "Pirates of the Caribbean: The Curse of the Black Pearl",
            "popularity": 36.291,
            "poster_path": "/tkt9xR1kNX5R9rCebASKck44si2.jpg",
            "original_language": "en",
            "original_title": "Pirates of the Caribbean: The Curse of the Black Pearl",
            "genre_ids": [
                12,
                14,
                28
            ],
            "backdrop_path": "/8AUQ7YlJJA9C8kWk8P4YNHIcFDE.jpg",
            "adult": false,
            "overview": "Jack Sparrow, a freewheeling 17th-century pirate, quarrels with a rival pirate bent on pillaging Port Royal. When the governor's daughter is kidnapped, Sparrow decides to help the girl's love save her.",
            "release_date": "2003-07-09"
        }
    ]
}